{
    "type": "object",
    "required": ["message","extensions"],
    "properties": {
      "error": {
        "message": "string"
      },
      "extensions": {
        "type": "object"
      }
    }
  }