{
  "id": "file:/item_graphQL.json#",
  "type": "object",
  "required": ["id", "title", "copiesInStock"],
  "additionalProperties": false,
  "properties": {
    "id": {
      "type": "string"
    },
    "title": {
      "type": "string"
    },
    "copiesInStock": {
      "type": "integer"
    }
  }
}