{
  "type": "object",
  "required": ["id","name","email"],
  "additionalProperties": false,
  "properties": {
    "id": {
      "type": "integer"
    },
    "name": {
      "type": "string"
    },
    "email": {
      "type": "string"
    }
  }
} 
